EESchema Schematic File Version 2
LIBS:power
LIBS:device
LIBS:transistors
LIBS:conn
LIBS:linear
LIBS:regul
LIBS:74xx
LIBS:cmos4000
LIBS:adc-dac
LIBS:memory
LIBS:xilinx
LIBS:special
LIBS:microcontrollers
LIBS:dsp
LIBS:microchip
LIBS:analog_switches
LIBS:motorola
LIBS:texas
LIBS:intel
LIBS:audio
LIBS:interface
LIBS:digital-audio
LIBS:philips
LIBS:display
LIBS:cypress
LIBS:siliconi
LIBS:opto
LIBS:atmel
LIBS:contrib
LIBS:valves
LIBS:mg323
LIBS:lpc13xx
LIBS:nxp_armmcu
LIBS:Regulators
LIBS:simcard
LIBS:PowerConnector
LIBS:Connectors
LIBS:feeder-cache
EELAYER 27 0
EELAYER END
$Descr A3 16535 11693
encoding utf-8
Sheet 1 1
Title ""
Date "21 jun 2014"
Rev ""
Comp ""
Comment1 ""
Comment2 ""
Comment3 ""
Comment4 ""
$EndDescr
$Comp
L MG323 U1001
U 1 1 53174EB7
P 4050 2600
F 0 "U1001" H 3950 2500 60  0000 C CNN
F 1 "MG323" H 4200 2500 60  0000 C CNN
F 2 "~" H 4200 2500 60  0000 C CNN
F 3 "~" H 4200 2500 60  0000 C CNN
	1    4050 2600
	1    0    0    -1  
$EndComp
$Comp
L LPC134X-FBD48 U1003
U 1 1 5318670B
P 11700 3850
F 0 "U1003" H 11750 2400 60  0000 C CNN
F 1 "LPC134X-FBD48" H 10850 2400 60  0000 C CNN
F 2 "~" H 12050 3950 60  0000 C CNN
F 3 "~" H 12050 3950 60  0000 C CNN
	1    11700 3850
	1    0    0    -1  
$EndComp
$Comp
L GND #PWR01
U 1 1 53186790
P 3200 5450
F 0 "#PWR01" H 3200 5450 30  0001 C CNN
F 1 "GND" H 3200 5380 30  0001 C CNN
F 2 "" H 3200 5450 60  0000 C CNN
F 3 "" H 3200 5450 60  0000 C CNN
	1    3200 5450
	1    0    0    -1  
$EndComp
$Comp
L CP1 CP5
U 1 1 531869CD
P 4550 7000
F 0 "CP5" H 4600 7100 50  0000 L CNN
F 1 "220uF" H 4600 6900 50  0000 L CNN
F 2 "~" H 4550 7000 60  0000 C CNN
F 3 "~" H 4550 7000 60  0000 C CNN
	1    4550 7000
	1    0    0    -1  
$EndComp
$Comp
L CP1 CP4
U 1 1 531869DC
P 4900 7000
F 0 "CP4" H 4950 7100 50  0000 L CNN
F 1 "220uF" H 4950 6900 50  0000 L CNN
F 2 "~" H 4900 7000 60  0000 C CNN
F 3 "~" H 4900 7000 60  0000 C CNN
	1    4900 7000
	1    0    0    -1  
$EndComp
$Comp
L CP1 CP3
U 1 1 531869EB
P 5250 7000
F 0 "CP3" H 5300 7100 50  0000 L CNN
F 1 "220uF" H 5300 6900 50  0000 L CNN
F 2 "~" H 5250 7000 60  0000 C CNN
F 3 "~" H 5250 7000 60  0000 C CNN
	1    5250 7000
	1    0    0    -1  
$EndComp
$Comp
L CP1 CP2
U 1 1 531869FA
P 5600 7000
F 0 "CP2" H 5650 7100 50  0000 L CNN
F 1 "220uF" H 5650 6900 50  0000 L CNN
F 2 "~" H 5600 7000 60  0000 C CNN
F 3 "~" H 5600 7000 60  0000 C CNN
	1    5600 7000
	1    0    0    -1  
$EndComp
$Comp
L CP1 CP1
U 1 1 53186A09
P 5950 7000
F 0 "CP1" H 6000 7100 50  0000 L CNN
F 1 "220uF" H 6000 6900 50  0000 L CNN
F 2 "~" H 5950 7000 60  0000 C CNN
F 3 "~" H 5950 7000 60  0000 C CNN
	1    5950 7000
	1    0    0    -1  
$EndComp
$Comp
L GND #PWR02
U 1 1 53186A18
P 4550 7300
F 0 "#PWR02" H 4550 7300 30  0001 C CNN
F 1 "GND" H 4550 7230 30  0001 C CNN
F 2 "" H 4550 7300 60  0000 C CNN
F 3 "" H 4550 7300 60  0000 C CNN
	1    4550 7300
	1    0    0    -1  
$EndComp
$Comp
L GND #PWR03
U 1 1 53186A27
P 4900 7300
F 0 "#PWR03" H 4900 7300 30  0001 C CNN
F 1 "GND" H 4900 7230 30  0001 C CNN
F 2 "" H 4900 7300 60  0000 C CNN
F 3 "" H 4900 7300 60  0000 C CNN
	1    4900 7300
	1    0    0    -1  
$EndComp
$Comp
L GND #PWR04
U 1 1 53186A36
P 5250 7300
F 0 "#PWR04" H 5250 7300 30  0001 C CNN
F 1 "GND" H 5250 7230 30  0001 C CNN
F 2 "" H 5250 7300 60  0000 C CNN
F 3 "" H 5250 7300 60  0000 C CNN
	1    5250 7300
	1    0    0    -1  
$EndComp
$Comp
L GND #PWR05
U 1 1 53186A45
P 5600 7300
F 0 "#PWR05" H 5600 7300 30  0001 C CNN
F 1 "GND" H 5600 7230 30  0001 C CNN
F 2 "" H 5600 7300 60  0000 C CNN
F 3 "" H 5600 7300 60  0000 C CNN
	1    5600 7300
	1    0    0    -1  
$EndComp
$Comp
L GND #PWR06
U 1 1 53186A54
P 5950 7300
F 0 "#PWR06" H 5950 7300 30  0001 C CNN
F 1 "GND" H 5950 7230 30  0001 C CNN
F 2 "" H 5950 7300 60  0000 C CNN
F 3 "" H 5950 7300 60  0000 C CNN
	1    5950 7300
	1    0    0    -1  
$EndComp
$Comp
L C C1
U 1 1 531870A0
P 6500 7000
F 0 "C1" H 6500 7100 40  0000 L CNN
F 1 "100nF" H 6506 6915 40  0000 L CNN
F 2 "~" H 6538 6850 30  0000 C CNN
F 3 "~" H 6500 7000 60  0000 C CNN
	1    6500 7000
	1    0    0    -1  
$EndComp
$Comp
L C C2
U 1 1 531870AF
P 6250 7000
F 0 "C2" H 6250 7100 40  0000 L CNN
F 1 "10uF" H 6256 6915 40  0000 L CNN
F 2 "~" H 6288 6850 30  0000 C CNN
F 3 "~" H 6250 7000 60  0000 C CNN
	1    6250 7000
	1    0    0    -1  
$EndComp
$Comp
L GND #PWR07
U 1 1 5318741B
P 6500 7300
F 0 "#PWR07" H 6500 7300 30  0001 C CNN
F 1 "GND" H 6500 7230 30  0001 C CNN
F 2 "" H 6500 7300 60  0000 C CNN
F 3 "" H 6500 7300 60  0000 C CNN
	1    6500 7300
	1    0    0    -1  
$EndComp
$Comp
L GND #PWR08
U 1 1 5318742A
P 6250 7300
F 0 "#PWR08" H 6250 7300 30  0001 C CNN
F 1 "GND" H 6250 7230 30  0001 C CNN
F 2 "" H 6250 7300 60  0000 C CNN
F 3 "" H 6250 7300 60  0000 C CNN
	1    6250 7300
	1    0    0    -1  
$EndComp
$Comp
L INDUCTOR L1001
U 1 1 531874A8
P 3700 6800
F 0 "L1001" V 3650 6800 40  0000 C CNN
F 1 "INDUCTOR" V 3800 6800 40  0000 C CNN
F 2 "~" H 3700 6800 60  0000 C CNN
F 3 "~" H 3700 6800 60  0000 C CNN
	1    3700 6800
	0    -1   -1   0   
$EndComp
$Comp
L R Power4.0V_R1
U 1 1 5318C57A
P 6150 1250
F 0 "Power4.0V_R1" V 6230 1250 40  0000 C CNN
F 1 "121R" V 6157 1251 40  0000 C CNN
F 2 "~" V 6080 1250 30  0000 C CNN
F 3 "~" H 6150 1250 30  0000 C CNN
	1    6150 1250
	1    0    0    -1  
$EndComp
$Comp
L R Power4.0V_R2
U 1 1 5318C589
P 6150 1900
F 0 "Power4.0V_R2" V 6230 1900 40  0000 C CNN
F 1 "270R" V 6157 1901 40  0000 C CNN
F 2 "~" V 6080 1900 30  0000 C CNN
F 3 "~" H 6150 1900 30  0000 C CNN
	1    6150 1900
	1    0    0    -1  
$EndComp
$Comp
L GND #PWR09
U 1 1 5318C60C
P 6150 2250
F 0 "#PWR09" H 6150 2250 30  0001 C CNN
F 1 "GND" H 6150 2180 30  0001 C CNN
F 2 "" H 6150 2250 60  0000 C CNN
F 3 "" H 6150 2250 60  0000 C CNN
	1    6150 2250
	1    0    0    -1  
$EndComp
$Comp
L GND #PWR010
U 1 1 5318C7E0
P 6450 2250
F 0 "#PWR010" H 6450 2250 30  0001 C CNN
F 1 "GND" H 6450 2180 30  0001 C CNN
F 2 "" H 6450 2250 60  0000 C CNN
F 3 "" H 6450 2250 60  0000 C CNN
	1    6450 2250
	1    0    0    -1  
$EndComp
$Comp
L GND #PWR011
U 1 1 5318C7EF
P 5050 2250
F 0 "#PWR011" H 5050 2250 30  0001 C CNN
F 1 "GND" H 5050 2180 30  0001 C CNN
F 2 "" H 5050 2250 60  0000 C CNN
F 3 "" H 5050 2250 60  0000 C CNN
	1    5050 2250
	1    0    0    -1  
$EndComp
$Comp
L CP1 Power4.0V_CPin1001
U 1 1 5318C83F
P 5050 1650
F 0 "Power4.0V_CPin1001" H 5100 1750 50  0000 L CNN
F 1 "10 uF" H 5100 1550 50  0000 L CNN
F 2 "~" H 5050 1650 60  0000 C CNN
F 3 "~" H 5050 1650 60  0000 C CNN
	1    5050 1650
	1    0    0    -1  
$EndComp
$Comp
L CP1 Power4.0V_CPout1001
U 1 1 5318C84E
P 6450 1650
F 0 "Power4.0V_CPout1001" H 6500 1750 50  0000 L CNN
F 1 "10 uF" H 6500 1550 50  0000 L CNN
F 2 "~" H 6450 1650 60  0000 C CNN
F 3 "~" H 6450 1650 60  0000 C CNN
	1    6450 1650
	1    0    0    -1  
$EndComp
$Comp
L CP1 CP7
U 1 1 5318CC73
P 3150 6050
F 0 "CP7" H 3200 6150 50  0000 L CNN
F 1 "220uF" H 3200 5950 50  0000 L CNN
F 2 "~" H 3150 6050 60  0000 C CNN
F 3 "~" H 3150 6050 60  0000 C CNN
	1    3150 6050
	1    0    0    -1  
$EndComp
$Comp
L GND #PWR012
U 1 1 5318CCD6
P 3150 6500
F 0 "#PWR012" H 3150 6500 30  0001 C CNN
F 1 "GND" H 3150 6430 30  0001 C CNN
F 2 "" H 3150 6500 60  0000 C CNN
F 3 "" H 3150 6500 60  0000 C CNN
	1    3150 6500
	1    0    0    -1  
$EndComp
$Comp
L NPN Q1003
U 1 1 5318D0C2
P 6550 4100
F 0 "Q1003" H 6550 3950 50  0000 R CNN
F 1 "NPN" H 6550 4250 50  0000 R CNN
F 2 "~" H 6550 4100 60  0000 C CNN
F 3 "~" H 6550 4100 60  0000 C CNN
	1    6550 4100
	-1   0    0    -1  
$EndComp
$Comp
L GND #PWR013
U 1 1 5318D190
P 6450 4300
F 0 "#PWR013" H 6450 4300 30  0001 C CNN
F 1 "GND" H 6450 4230 30  0001 C CNN
F 2 "" H 6450 4300 60  0000 C CNN
F 3 "" H 6450 4300 60  0000 C CNN
	1    6450 4300
	1    0    0    -1  
$EndComp
$Comp
L GND #PWR014
U 1 1 5318D19F
P 5700 4300
F 0 "#PWR014" H 5700 4300 30  0001 C CNN
F 1 "GND" H 5700 4230 30  0001 C CNN
F 2 "" H 5700 4300 60  0000 C CNN
F 3 "" H 5700 4300 60  0000 C CNN
	1    5700 4300
	1    0    0    -1  
$EndComp
$Comp
L C C1001
U 1 1 5318D1AE
P 5700 4100
F 0 "C1001" H 5700 4200 40  0000 L CNN
F 1 "10nF" H 5706 4015 40  0000 L CNN
F 2 "~" H 5738 3950 30  0000 C CNN
F 3 "~" H 5700 4100 60  0000 C CNN
	1    5700 4100
	1    0    0    -1  
$EndComp
$Comp
L R R1002
U 1 1 5318D20E
P 7000 4100
F 0 "R1002" V 7080 4100 40  0000 C CNN
F 1 "2k2" V 7007 4101 40  0000 C CNN
F 2 "~" V 6930 4100 30  0000 C CNN
F 3 "~" H 7000 4100 30  0000 C CNN
	1    7000 4100
	0    1    1    0   
$EndComp
$Comp
L NPN Q1002
U 1 1 5318D233
P 6550 3550
F 0 "Q1002" H 6550 3400 50  0000 R CNN
F 1 "NPN" H 6550 3700 50  0000 R CNN
F 2 "~" H 6550 3550 60  0000 C CNN
F 3 "~" H 6550 3550 60  0000 C CNN
	1    6550 3550
	-1   0    0    -1  
$EndComp
$Comp
L GND #PWR015
U 1 1 5318D23A
P 6450 3750
F 0 "#PWR015" H 6450 3750 30  0001 C CNN
F 1 "GND" H 6450 3680 30  0001 C CNN
F 2 "" H 6450 3750 60  0000 C CNN
F 3 "" H 6450 3750 60  0000 C CNN
	1    6450 3750
	1    0    0    -1  
$EndComp
$Comp
L GND #PWR016
U 1 1 5318D240
P 6100 3750
F 0 "#PWR016" H 6100 3750 30  0001 C CNN
F 1 "GND" H 6100 3680 30  0001 C CNN
F 2 "" H 6100 3750 60  0000 C CNN
F 3 "" H 6100 3750 60  0000 C CNN
	1    6100 3750
	1    0    0    -1  
$EndComp
$Comp
L C C1002
U 1 1 5318D246
P 6100 3550
F 0 "C1002" H 6100 3650 40  0000 L CNN
F 1 "10nF" H 6106 3465 40  0000 L CNN
F 2 "~" H 6138 3400 30  0000 C CNN
F 3 "~" H 6100 3550 60  0000 C CNN
	1    6100 3550
	1    0    0    -1  
$EndComp
$Comp
L R R1001
U 1 1 5318D250
P 7000 3550
F 0 "R1001" V 7080 3550 40  0000 C CNN
F 1 "2k2" V 7007 3551 40  0000 C CNN
F 2 "~" V 6930 3550 30  0000 C CNN
F 3 "~" H 7000 3550 30  0000 C CNN
	1    7000 3550
	0    1    1    0   
$EndComp
$Comp
L NPN Q1001
U 1 1 5318E549
P 2400 4100
F 0 "Q1001" H 2400 3950 50  0000 R CNN
F 1 "NPN" H 2400 4250 50  0000 R CNN
F 2 "~" H 2400 4100 60  0000 C CNN
F 3 "~" H 2400 4100 60  0000 C CNN
	1    2400 4100
	-1   0    0    -1  
$EndComp
$Comp
L LED D1001
U 1 1 5318E657
P 2300 3600
F 0 "D1001" H 2300 3700 50  0000 C CNN
F 1 "LED" H 2300 3500 50  0000 C CNN
F 2 "~" H 2300 3600 60  0000 C CNN
F 3 "~" H 2300 3600 60  0000 C CNN
	1    2300 3600
	0    1    1    0   
$EndComp
$Comp
L GND #PWR017
U 1 1 5318E6E1
P 2300 4450
F 0 "#PWR017" H 2300 4450 30  0001 C CNN
F 1 "GND" H 2300 4380 30  0001 C CNN
F 2 "" H 2300 4450 60  0000 C CNN
F 3 "" H 2300 4450 60  0000 C CNN
	1    2300 4450
	1    0    0    -1  
$EndComp
$Comp
L LM317AH Power3.0V_Regulator1001
U 1 1 532D6552
P 8950 1100
F 0 "Power3.0V_Regulator1001" H 8750 1300 40  0000 C CNN
F 1 "LM317AHVT" H 8950 1300 40  0000 L CNN
F 2 "TO-220" H 8950 1200 30  0000 C CIN
F 3 "~" H 8950 1100 60  0000 C CNN
	1    8950 1100
	1    0    0    -1  
$EndComp
$Comp
L C Power3.0V_Cin1001
U 1 1 532D65F6
P 8150 1250
F 0 "Power3.0V_Cin1001" H 8150 1350 40  0000 L CNN
F 1 "0.1 uF" H 8156 1165 40  0000 L CNN
F 2 "~" H 8188 1100 30  0000 C CNN
F 3 "~" H 8150 1250 60  0000 C CNN
	1    8150 1250
	1    0    0    -1  
$EndComp
$Comp
L C Power3.0V_Cout1001
U 1 1 532D6605
P 9700 1250
F 0 "Power3.0V_Cout1001" H 9700 1350 40  0000 L CNN
F 1 "1 uF" H 9706 1165 40  0000 L CNN
F 2 "~" H 9738 1100 30  0000 C CNN
F 3 "~" H 9700 1250 60  0000 C CNN
	1    9700 1250
	1    0    0    -1  
$EndComp
$Comp
L GND #PWR018
U 1 1 532D6679
P 9700 1700
F 0 "#PWR018" H 9700 1700 30  0001 C CNN
F 1 "GND" H 9700 1630 30  0001 C CNN
F 2 "" H 9700 1700 60  0000 C CNN
F 3 "" H 9700 1700 60  0000 C CNN
	1    9700 1700
	1    0    0    -1  
$EndComp
$Comp
L GND #PWR019
U 1 1 532D6688
P 8150 1700
F 0 "#PWR019" H 8150 1700 30  0001 C CNN
F 1 "GND" H 8150 1630 30  0001 C CNN
F 2 "" H 8150 1700 60  0000 C CNN
F 3 "" H 8150 1700 60  0000 C CNN
	1    8150 1700
	1    0    0    -1  
$EndComp
$Comp
L R Power3.0V_R2
U 1 1 532D6895
P 8950 1700
F 0 "Power3.0V_R2" V 9030 1700 40  0000 C CNN
F 1 "330R" V 8957 1701 40  0000 C CNN
F 2 "~" V 8880 1700 30  0000 C CNN
F 3 "~" H 8950 1700 30  0000 C CNN
	1    8950 1700
	1    0    0    -1  
$EndComp
$Comp
L R Power3.0V_R1
U 1 1 532D68A4
P 9250 1450
F 0 "Power3.0V_R1" V 9330 1450 40  0000 C CNN
F 1 "240R" V 9257 1451 40  0000 C CNN
F 2 "~" V 9180 1450 30  0000 C CNN
F 3 "~" H 9250 1450 30  0000 C CNN
	1    9250 1450
	0    1    1    0   
$EndComp
$Comp
L GND #PWR020
U 1 1 532D68E8
P 8950 2050
F 0 "#PWR020" H 8950 2050 30  0001 C CNN
F 1 "GND" H 8950 1980 30  0001 C CNN
F 2 "" H 8950 2050 60  0000 C CNN
F 3 "" H 8950 2050 60  0000 C CNN
	1    8950 2050
	1    0    0    -1  
$EndComp
$Comp
L GND #PWR021
U 1 1 532E18E4
P 5100 3750
F 0 "#PWR021" H 5100 3750 30  0001 C CNN
F 1 "GND" H 5100 3680 30  0001 C CNN
F 2 "" H 5100 3750 60  0000 C CNN
F 3 "" H 5100 3750 60  0000 C CNN
	1    5100 3750
	1    0    0    -1  
$EndComp
$Comp
L USB-MINI-B CON1001
U 1 1 532E1AD8
P 7300 10050
F 0 "CON1001" H 7050 10500 60  0000 C CNN
F 1 "USB-MINI-B" H 7250 9550 60  0000 C CNN
F 2 "~" H 7300 10050 60  0000 C CNN
F 3 "~" H 7300 10050 60  0000 C CNN
	1    7300 10050
	1    0    0    -1  
$EndComp
$Comp
L GND #PWR022
U 1 1 532E1CD2
P 8300 10450
F 0 "#PWR022" H 8300 10450 30  0001 C CNN
F 1 "GND" H 8300 10380 30  0001 C CNN
F 2 "" H 8300 10450 60  0000 C CNN
F 3 "" H 8300 10450 60  0000 C CNN
	1    8300 10450
	1    0    0    -1  
$EndComp
$Comp
L GND #PWR023
U 1 1 532EB1D5
P 14550 2750
F 0 "#PWR023" H 14550 2750 30  0001 C CNN
F 1 "GND" H 14550 2680 30  0001 C CNN
F 2 "" H 14550 2750 60  0000 C CNN
F 3 "" H 14550 2750 60  0000 C CNN
	1    14550 2750
	1    0    0    -1  
$EndComp
$Comp
L LM317AH Power5.0V_Regulator1001
U 1 1 532EBD8C
P 9500 6200
F 0 "Power5.0V_Regulator1001" H 9300 6400 40  0000 C CNN
F 1 "LM317AHVT" H 9500 6400 40  0000 L CNN
F 2 "TO-220" H 9500 6300 30  0000 C CIN
F 3 "~" H 9500 6200 60  0000 C CNN
	1    9500 6200
	1    0    0    -1  
$EndComp
$Comp
L C Power5.0V_Cin1001
U 1 1 532EBD92
P 8700 6350
F 0 "Power5.0V_Cin1001" H 8700 6450 40  0000 L CNN
F 1 "0.1 uF" H 8706 6265 40  0000 L CNN
F 2 "~" H 8738 6200 30  0000 C CNN
F 3 "~" H 8700 6350 60  0000 C CNN
	1    8700 6350
	1    0    0    -1  
$EndComp
$Comp
L C Power5.0V_Cout1001
U 1 1 532EBD98
P 10250 6350
F 0 "Power5.0V_Cout1001" H 10250 6450 40  0000 L CNN
F 1 "1 uF" H 10256 6265 40  0000 L CNN
F 2 "~" H 10288 6200 30  0000 C CNN
F 3 "~" H 10250 6350 60  0000 C CNN
	1    10250 6350
	1    0    0    -1  
$EndComp
$Comp
L GND #PWR024
U 1 1 532EBD9E
P 10250 6800
F 0 "#PWR024" H 10250 6800 30  0001 C CNN
F 1 "GND" H 10250 6730 30  0001 C CNN
F 2 "" H 10250 6800 60  0000 C CNN
F 3 "" H 10250 6800 60  0000 C CNN
	1    10250 6800
	1    0    0    -1  
$EndComp
$Comp
L GND #PWR025
U 1 1 532EBDA4
P 8700 6800
F 0 "#PWR025" H 8700 6800 30  0001 C CNN
F 1 "GND" H 8700 6730 30  0001 C CNN
F 2 "" H 8700 6800 60  0000 C CNN
F 3 "" H 8700 6800 60  0000 C CNN
	1    8700 6800
	1    0    0    -1  
$EndComp
$Comp
L R Power5.0V_R2
U 1 1 532EBDAA
P 9500 6800
F 0 "Power5.0V_R2" V 9580 6800 40  0000 C CNN
F 1 "720R" V 9507 6801 40  0000 C CNN
F 2 "~" V 9430 6800 30  0000 C CNN
F 3 "~" H 9500 6800 30  0000 C CNN
	1    9500 6800
	1    0    0    -1  
$EndComp
$Comp
L R Power5.0V_R1
U 1 1 532EBDB0
P 9800 6550
F 0 "Power5.0V_R1" V 9880 6550 40  0000 C CNN
F 1 "240R" V 9807 6551 40  0000 C CNN
F 2 "~" V 9730 6550 30  0000 C CNN
F 3 "~" H 9800 6550 30  0000 C CNN
	1    9800 6550
	0    1    1    0   
$EndComp
$Comp
L GND #PWR026
U 1 1 532EBDB6
P 9500 7150
F 0 "#PWR026" H 9500 7150 30  0001 C CNN
F 1 "GND" H 9500 7080 30  0001 C CNN
F 2 "" H 9500 7150 60  0000 C CNN
F 3 "" H 9500 7150 60  0000 C CNN
	1    9500 7150
	1    0    0    -1  
$EndComp
NoConn ~ 9600 4950
NoConn ~ 9600 4850
NoConn ~ 9600 4250
NoConn ~ 9600 3050
NoConn ~ 9600 3250
NoConn ~ 9600 3350
NoConn ~ 13400 3350
NoConn ~ 13400 3450
NoConn ~ 13400 3550
NoConn ~ 13400 3650
NoConn ~ 13400 3750
NoConn ~ 13400 3850
NoConn ~ 13400 3950
NoConn ~ 7850 9750
NoConn ~ 7850 9900
NoConn ~ 7850 10200
NoConn ~ 7850 10350
NoConn ~ 6750 10200
Text Label 8300 10250 0    60   ~ 0
USB_GND
Text Label 6250 10350 0    60   ~ 0
USB_GND
Text Label 6250 10050 0    60   ~ 0
USB_DP
Text Label 6250 9900 0    60   ~ 0
USB_DM
Text Label 6250 9750 0    60   ~ 0
USB_VBus
Text Label 14650 3000 0    60   ~ 0
SWO
Text Label 14650 2900 0    60   ~ 0
SWCLK
Text Label 14650 2800 0    60   ~ 0
SWDIO
Text Label 14650 2600 0    60   ~ 0
3.0V
Text Label 14650 3100 0    60   ~ 0
MCU_~RESET~
Text Label 13550 2950 0    60   ~ 0
UART_~DTR~
Text Label 13550 3050 0    60   ~ 0
UART_~DSR~
Text Label 13550 3150 0    60   ~ 0
UART_~DCD~
Text Label 5600 10300 0    60   ~ 0
USB_DM
Text Label 14600 7550 0    60   ~ 0
3.0V
Text Label 14950 4450 0    60   ~ 0
PIO0_1
Text Label 11100 6150 0    60   ~ 0
5.0V
Text Label 6900 6800 0    60   ~ 0
VBat
Text Label 5100 5700 0    60   ~ 0
VBat
Text Label 5050 4400 0    60   ~ 0
UART_~DTR~
Text Label 5050 4500 0    60   ~ 0
UART_~RTS~
Text Label 5050 4600 0    60   ~ 0
UART_~DSR~
Text Label 5050 4700 0    60   ~ 0
UART_RING
Text Label 5050 4000 0    60   ~ 0
UART_~DCD~
Text Label 5050 4200 0    60   ~ 0
UART_~CTS~
Text Label 2700 3200 0    60   ~ 0
SIM_RST
Text Label 2700 3100 0    60   ~ 0
SIM_IO
Text Label 2700 3000 0    60   ~ 0
SIM_VCC
Text Label 2700 2900 0    60   ~ 0
SIM_CLK
Text Label 2200 1450 0    60   ~ 0
SIM_Vcc
Text Label 2200 1550 0    60   ~ 0
SIM_Rst
Text Label 2200 1650 0    60   ~ 0
SIM_Clk
Text Label 3450 1650 0    60   ~ 0
SIM_IO
Text Label 6900 1000 0    60   ~ 0
4.0V
Text Label 10350 1050 0    60   ~ 0
3.0V
Text Label 8950 5150 0    60   ~ 0
GSM_TERM_ON
Text Label 8950 5050 0    60   ~ 0
GSM_RESET
Text Label 8950 4750 0    60   ~ 0
UART_TXD
Text Label 8950 4650 0    60   ~ 0
UART_RXD
Text Label 8950 4550 0    60   ~ 0
UART_~RTS~
Text Label 8950 4350 0    60   ~ 0
SWDIO
Text Label 8950 3850 0    60   ~ 0
SWCLK
Text Label 8950 3750 0    60   ~ 0
SWO
Text Label 8950 3650 0    60   ~ 0
SERVO_PWM
Text Label 8950 3550 0    60   ~ 0
UART_~CTS~
Text Label 8950 3150 0    60   ~ 0
USB_VBus
Text Label 8650 2850 0    60   ~ 0
MCU_~RESET~
Text Label 8650 2950 0    60   ~ 0
PIO0_1
Text Label 2850 6800 0    60   ~ 0
4.0V
Text Label 1600 1500 0    60   ~ 0
Vin
$Comp
L GND #PWR027
U 1 1 532EFD29
P 1600 1850
F 0 "#PWR027" H 1650 1900 60  0001 C CNN
F 1 "GND" H 1600 1850 60  0001 C CNN
F 2 "" H 1600 1850 60  0001 C CNN
F 3 "" H 1600 1850 60  0001 C CNN
F 4 "#PWR" H 1600 1850 30  0001 C CNN "Reference"
F 5 "GND" H 1600 1780 30  0001 C CNN "Value"
F 6 "" H 1600 1850 60  0000 C CNN "Footprint"
F 7 "" H 1600 1850 60  0000 C CNN "Datasheet"
	1    1600 1850
	1    0    0    -1  
$EndComp
Text Label 4650 1000 0    60   ~ 0
Vin
Text Label 7700 1050 0    60   ~ 0
Vin
Text Label 8250 6150 0    60   ~ 0
Vin
$Comp
L SWD_CONNECTOR SWD_CONN0
U 1 1 532F0761
P 15950 2800
F 0 "SWD_CONN0" H 16000 2850 60  0001 C CNN
F 1 "SWD_CONNECTOR" H 15950 2800 60  0001 C CNN
F 2 "" H 15950 2800 60  0001 C CNN
F 3 "" H 15950 2800 60  0001 C CNN
	1    15950 2800
	0    1    1    0   
$EndComp
Text Label 2300 2750 0    60   ~ 0
VBat
Text Label 7600 3550 0    60   ~ 0
GSM_TERM_ON
Text Label 7600 4100 0    60   ~ 0
GSM_RESET
$Comp
L CONN_6 PORT_DEBUG1
U 1 1 532F147A
P 15800 4300
F 0 "PORT_DEBUG1" H 15850 4350 60  0001 C CNN
F 1 "CONN_6" H 15800 4300 60  0001 C CNN
F 2 "" H 15800 4300 60  0001 C CNN
F 3 "" H 15800 4300 60  0001 C CNN
F 4 "P" V 15750 4300 60  0000 C CNN "Reference"
F 5 "CONN_6" V 15850 4300 60  0000 C CNN "Value"
F 6 "~" H 15800 4300 60  0000 C CNN "Footprint"
F 7 "~" H 15800 4300 60  0000 C CNN "Datasheet"
	1    15800 4300
	1    0    0    -1  
$EndComp
$Comp
L GND #PWR028
U 1 1 532F1883
P 15250 4600
F 0 "#PWR028" H 15300 4650 60  0001 C CNN
F 1 "GND" H 15250 4600 60  0001 C CNN
F 2 "" H 15250 4600 60  0001 C CNN
F 3 "" H 15250 4600 60  0001 C CNN
F 4 "#PWR" H 15250 4600 30  0001 C CNN "Reference"
F 5 "GND" H 15250 4530 30  0001 C CNN "Value"
F 6 "" H 15250 4600 60  0000 C CNN "Footprint"
F 7 "" H 15250 4600 60  0000 C CNN "Datasheet"
	1    15250 4600
	1    0    0    -1  
$EndComp
Text Label 2700 4300 0    60   ~ 0
UART_RXD
Text Label 2700 4500 0    60   ~ 0
UART_TXD
$Comp
L GND #PWR029
U 1 1 532F1ECC
P 3100 3450
F 0 "#PWR029" H 3150 3500 60  0001 C CNN
F 1 "GND" H 3100 3450 60  0001 C CNN
F 2 "" H 3100 3450 60  0001 C CNN
F 3 "" H 3100 3450 60  0001 C CNN
F 4 "#PWR" H 3100 3450 30  0001 C CNN "Reference"
F 5 "GND" H 3100 3380 30  0001 C CNN "Value"
F 6 "" H 3100 3450 60  0000 C CNN "Footprint"
F 7 "" H 3100 3450 60  0000 C CNN "Datasheet"
	1    3100 3450
	1    0    0    -1  
$EndComp
$Comp
L GND #PWR030
U 1 1 532F1FA5
P 3550 1500
F 0 "#PWR030" H 3600 1550 60  0001 C CNN
F 1 "GND" H 3550 1500 60  0001 C CNN
F 2 "" H 3550 1500 60  0001 C CNN
F 3 "" H 3550 1500 60  0001 C CNN
F 4 "#PWR" H 3550 1500 30  0001 C CNN "Reference"
F 5 "GND" H 3550 1430 30  0001 C CNN "Value"
F 6 "" H 3550 1500 60  0000 C CNN "Footprint"
F 7 "" H 3550 1500 60  0000 C CNN "Datasheet"
	1    3550 1500
	1    0    0    -1  
$EndComp
NoConn ~ 9600 4450
NoConn ~ 4950 2900
NoConn ~ 4950 3000
NoConn ~ 4950 3100
NoConn ~ 4950 3200
NoConn ~ 4950 3300
NoConn ~ 4950 3400
NoConn ~ 4950 3500
NoConn ~ 4950 3600
$Comp
L PWR_FLAG #FLG031
U 1 1 532F2942
P 6750 6800
F 0 "#FLG031" H 6800 6850 60  0001 C CNN
F 1 "PWR_FLAG" H 6750 6800 60  0001 C CNN
F 2 "" H 6750 6800 60  0001 C CNN
F 3 "" H 6750 6800 60  0001 C CNN
F 4 "#FLG" H 6750 6895 30  0001 C CNN "Reference"
F 5 "PWR_FLAG" H 6750 6980 30  0000 C CNN "Value"
F 6 "" H 6750 6800 60  0000 C CNN "Footprint"
F 7 "" H 6750 6800 60  0000 C CNN "Datasheet"
	1    6750 6800
	1    0    0    -1  
$EndComp
$Comp
L PWR_FLAG #FLG032
U 1 1 532F2DAE
P 3000 5800
F 0 "#FLG032" H 3050 5850 60  0001 C CNN
F 1 "PWR_FLAG" H 3000 5800 60  0001 C CNN
F 2 "" H 3000 5800 60  0001 C CNN
F 3 "" H 3000 5800 60  0001 C CNN
F 4 "#FLG" H 3000 5895 30  0001 C CNN "Reference"
F 5 "PWR_FLAG" H 3000 5980 30  0000 C CNN "Value"
F 6 "" H 3000 5800 60  0000 C CNN "Footprint"
F 7 "" H 3000 5800 60  0000 C CNN "Datasheet"
	1    3000 5800
	1    0    0    -1  
$EndComp
$Comp
L R USB_RP1
U 1 1 532F3349
P 4800 10200
F 0 "USB_RP1" H 4850 10250 60  0001 C CNN
F 1 "33R" H 4800 10200 60  0001 C CNN
F 2 "" H 4800 10200 60  0001 C CNN
F 3 "" H 4800 10200 60  0001 C CNN
F 4 "USB_RP" V 4700 10200 40  0000 C CNN "Reference"
F 5 "33R" V 4807 10201 40  0000 C CNN "Value"
F 6 "~" V 4730 10200 30  0000 C CNN "Footprint"
F 7 "~" H 4800 10200 30  0000 C CNN "Datasheet"
	1    4800 10200
	0    1    1    0   
$EndComp
$Comp
L R USB_RM1
U 1 1 532F338E
P 4800 10300
F 0 "USB_RM1" H 4850 10350 60  0001 C CNN
F 1 "33R" H 4800 10300 60  0001 C CNN
F 2 "" H 4800 10300 60  0001 C CNN
F 3 "" H 4800 10300 60  0001 C CNN
F 4 "USB_RM" V 4900 10300 40  0000 C CNN "Reference"
F 5 "33R" V 4807 10301 40  0000 C CNN "Value"
F 6 "~" V 4730 10300 30  0000 C CNN "Footprint"
F 7 "~" H 4800 10300 30  0000 C CNN "Datasheet"
	1    4800 10300
	0    1    1    0   
$EndComp
NoConn ~ 13400 4450
$Comp
L PWR_FLAG #FLG033
U 1 1 532F33EA
P 6700 9550
F 0 "#FLG033" H 6750 9600 60  0001 C CNN
F 1 "PWR_FLAG" H 6700 9550 60  0001 C CNN
F 2 "" H 6700 9550 60  0001 C CNN
F 3 "" H 6700 9550 60  0001 C CNN
F 4 "#FLG" H 6700 9645 30  0001 C CNN "Reference"
F 5 "PWR_FLAG" H 6700 9730 30  0000 C CNN "Value"
F 6 "" H 6700 9550 60  0000 C CNN "Footprint"
F 7 "" H 6700 9550 60  0000 C CNN "Datasheet"
	1    6700 9550
	1    0    0    -1  
$EndComp
Text Label 13550 3250 0    60   ~ 0
UART_RING
NoConn ~ 4950 4800
Text Label 8950 3950 0    60   ~ 0
SERVO_GP0
Text Label 8950 4050 0    60   ~ 0
SERVO_GP1
Text Label 8950 4150 0    60   ~ 0
SERVO_GP2
$Comp
L CONN_3X2 CONN_SERVO1
U 1 1 5330204D
P 1600 5550
F 0 "CONN_SERVO1" H 1600 5800 50  0000 C CNN
F 1 "CONN_3X2" V 1600 5600 40  0000 C CNN
F 2 "~" H 1600 5550 60  0000 C CNN
F 3 "~" H 1600 5550 60  0000 C CNN
	1    1600 5550
	1    0    0    -1  
$EndComp
Text Label 600  5400 0    60   ~ 0
SERVO_PWM
Text Label 2100 5400 0    60   ~ 0
SERVO_GP0
Text Label 2100 5500 0    60   ~ 0
SERVO_GP1
Text Label 2100 5600 0    60   ~ 0
SERVO_GP2
Text Label 600  5500 0    60   ~ 0
5.0V
$Comp
L GND #PWR034
U 1 1 5330205C
P 600 5650
F 0 "#PWR034" H 600 5650 30  0001 C CNN
F 1 "GND" H 600 5580 30  0001 C CNN
F 2 "" H 600 5650 60  0000 C CNN
F 3 "" H 600 5650 60  0000 C CNN
	1    600  5650
	1    0    0    -1  
$EndComp
$Comp
L LED Power5.0V_LED0
U 1 1 533027C0
P 11000 7100
F 0 "Power5.0V_LED0" H 11000 7200 50  0000 C CNN
F 1 "LED" H 11000 7000 50  0000 C CNN
F 2 "~" H 11000 7100 60  0000 C CNN
F 3 "~" H 11000 7100 60  0000 C CNN
	1    11000 7100
	0    1    1    0   
$EndComp
$Comp
L GND #PWR035
U 1 1 533027E5
P 11000 7550
F 0 "#PWR035" H 11000 7550 30  0001 C CNN
F 1 "GND" H 11000 7480 30  0001 C CNN
F 2 "" H 11000 7550 60  0000 C CNN
F 3 "" H 11000 7550 60  0000 C CNN
	1    11000 7550
	1    0    0    -1  
$EndComp
$Comp
L R Power5.0V_Rled0
U 1 1 533028E5
P 11000 6500
F 0 "Power5.0V_Rled0" V 11080 6500 40  0000 C CNN
F 1 "250R" V 11007 6501 40  0000 C CNN
F 2 "~" V 10930 6500 30  0000 C CNN
F 3 "~" H 11000 6500 30  0000 C CNN
	1    11000 6500
	1    0    0    -1  
$EndComp
$Comp
L LED Power3.0V_LED1
U 1 1 53302CCE
P 10250 1950
F 0 "Power3.0V_LED1" H 10250 2050 50  0000 C CNN
F 1 "LED" H 10250 1850 50  0000 C CNN
F 2 "~" H 10250 1950 60  0000 C CNN
F 3 "~" H 10250 1950 60  0000 C CNN
	1    10250 1950
	0    1    1    0   
$EndComp
$Comp
L GND #PWR036
U 1 1 53302CD4
P 10250 2400
F 0 "#PWR036" H 10250 2400 30  0001 C CNN
F 1 "GND" H 10250 2330 30  0001 C CNN
F 2 "" H 10250 2400 60  0000 C CNN
F 3 "" H 10250 2400 60  0000 C CNN
	1    10250 2400
	1    0    0    -1  
$EndComp
$Comp
L R Power3.0V_Rled1
U 1 1 53302CDA
P 10250 1350
F 0 "Power3.0V_Rled1" V 10330 1350 40  0000 C CNN
F 1 "150R" V 10257 1351 40  0000 C CNN
F 2 "~" V 10180 1350 30  0000 C CNN
F 3 "~" H 10250 1350 30  0000 C CNN
	1    10250 1350
	1    0    0    -1  
$EndComp
$Comp
L LED Power4.0V_LED0
U 1 1 53302CF8
P 6850 2000
F 0 "Power4.0V_LED0" H 6850 2100 50  0000 C CNN
F 1 "LED" H 6850 1900 50  0000 C CNN
F 2 "~" H 6850 2000 60  0000 C CNN
F 3 "~" H 6850 2000 60  0000 C CNN
	1    6850 2000
	0    1    1    0   
$EndComp
$Comp
L GND #PWR037
U 1 1 53302CFE
P 6850 2450
F 0 "#PWR037" H 6850 2450 30  0001 C CNN
F 1 "GND" H 6850 2380 30  0001 C CNN
F 2 "" H 6850 2450 60  0000 C CNN
F 3 "" H 6850 2450 60  0000 C CNN
	1    6850 2450
	1    0    0    -1  
$EndComp
$Comp
L R Power4.0V_Rled0
U 1 1 53302D04
P 6850 1400
F 0 "Power4.0V_Rled0" V 6930 1400 40  0000 C CNN
F 1 "200R" V 6857 1401 40  0000 C CNN
F 2 "~" V 6780 1400 30  0000 C CNN
F 3 "~" H 6850 1400 30  0000 C CNN
	1    6850 1400
	1    0    0    -1  
$EndComp
$Comp
L C MCU_C2
U 1 1 53304033
P 14600 7900
F 0 "MCU_C2" H 14600 8000 40  0000 L CNN
F 1 "100nF" H 14606 7815 40  0000 L CNN
F 2 "~" H 14638 7750 30  0000 C CNN
F 3 "~" H 14600 7900 60  0000 C CNN
	1    14600 7900
	1    0    0    -1  
$EndComp
$Comp
L R R_reset0
U 1 1 53304449
P 9550 2550
F 0 "R_reset0" V 9630 2550 40  0000 C CNN
F 1 "10k" V 9557 2551 40  0000 C CNN
F 2 "~" V 9480 2550 30  0000 C CNN
F 3 "~" H 9550 2550 30  0000 C CNN
	1    9550 2550
	1    0    0    1   
$EndComp
Text Label 9550 2150 0    60   ~ 0
3.0V
$Comp
L LM317AH Power4.0V_Regulator1
U 1 1 533D24BD
P 5600 1050
F 0 "Power4.0V_Regulator1" H 5600 1300 40  0000 C CNN
F 1 "LM1085IS-ADJ/NOPB" H 5350 1250 40  0000 L CNN
F 2 "TO-222" H 5600 1150 30  0000 C CIN
F 3 "~" H 5600 1050 60  0000 C CNN
	1    5600 1050
	1    0    0    -1  
$EndComp
$Comp
L C Cosc1
U 1 1 534AA182
P 12950 8000
F 0 "Cosc1" H 12950 8100 40  0000 L CNN
F 1 "18pF" H 12956 7915 40  0000 L CNN
F 2 "~" H 12988 7850 30  0000 C CNN
F 3 "~" H 12950 8000 60  0000 C CNN
	1    12950 8000
	1    0    0    -1  
$EndComp
$Comp
L C Cosc2
U 1 1 534AA191
P 13550 8000
F 0 "Cosc2" H 13550 8100 40  0000 L CNN
F 1 "18pF" H 13556 7915 40  0000 L CNN
F 2 "~" H 13588 7850 30  0000 C CNN
F 3 "~" H 13550 8000 60  0000 C CNN
	1    13550 8000
	1    0    0    -1  
$EndComp
$Comp
L GND #PWR038
U 1 1 534AA3E5
P 13550 8300
F 0 "#PWR038" H 13550 8300 30  0001 C CNN
F 1 "GND" H 13550 8230 30  0001 C CNN
F 2 "" H 13550 8300 60  0000 C CNN
F 3 "" H 13550 8300 60  0000 C CNN
	1    13550 8300
	1    0    0    -1  
$EndComp
$Comp
L GND #PWR039
U 1 1 534AA3F4
P 12950 8300
F 0 "#PWR039" H 12950 8300 30  0001 C CNN
F 1 "GND" H 12950 8230 30  0001 C CNN
F 2 "" H 12950 8300 60  0000 C CNN
F 3 "" H 12950 8300 60  0000 C CNN
	1    12950 8300
	1    0    0    -1  
$EndComp
$Comp
L CRYSTAL X0
U 1 1 534AA1C3
P 13250 7700
F 0 "X0" H 13250 7550 60  0000 C CNN
F 1 "CRYSTAL 12MHz" H 13250 7850 60  0000 C CNN
F 2 "~" H 13250 7700 60  0000 C CNN
F 3 "~" H 13250 7700 60  0000 C CNN
	1    13250 7700
	1    0    0    -1  
$EndComp
$Comp
L R R_Gsm0
U 1 1 534ABB86
P 2300 3100
F 0 "R_Gsm0" V 2380 3100 40  0000 C CNN
F 1 "300R" V 2307 3101 40  0000 C CNN
F 2 "~" V 2230 3100 30  0000 C CNN
F 3 "~" H 2300 3100 30  0000 C CNN
	1    2300 3100
	1    0    0    -1  
$EndComp
$Comp
L SIMCARD Sim0
U 1 1 534B8F6D
P 2950 1600
F 0 "Sim0" V 2900 1600 60  0000 C CNN
F 1 "SIMCARD" V 3000 1600 60  0000 C CNN
F 2 "~" H 2950 1600 60  0000 C CNN
F 3 "~" H 2950 1600 60  0000 C CNN
	1    2950 1600
	1    0    0    -1  
$EndComp
$Comp
L POWER P1
U 1 1 536012F0
P 1150 1600
F 0 "P1" V 1100 1600 40  0000 C CNN
F 1 "POWER" V 1200 1600 40  0000 C CNN
F 2 "~" H 1150 1600 60  0000 C CNN
F 3 "~" H 1150 1600 60  0000 C CNN
	1    1150 1600
	-1   0    0    1   
$EndComp
Text Label 13600 5050 0    60   ~ 0
Vss_1
Text Label 13600 4950 0    60   ~ 0
Vdd_1
Text Label 13600 4850 0    60   ~ 0
Vss_2
Text Label 13600 4750 0    60   ~ 0
Vdd_2
Text Label 13600 5150 0    60   ~ 0
Xtal_in
Text Label 13600 5250 0    60   ~ 0
Xtal_out
Text Label 14600 7650 0    60   ~ 0
Vdd_2
Text Label 14600 8200 0    60   ~ 0
Vss_2
$Comp
L GND #PWR040
U 1 1 53A40EFB
P 14600 8350
F 0 "#PWR040" H 14600 8350 30  0001 C CNN
F 1 "GND" H 14600 8280 30  0001 C CNN
F 2 "" H 14600 8350 60  0000 C CNN
F 3 "" H 14600 8350 60  0000 C CNN
	1    14600 8350
	1    0    0    -1  
$EndComp
Text Label 15050 7550 0    60   ~ 0
3.0V
Text Label 15050 7650 0    60   ~ 0
Vdd_1
Text Label 15050 8200 0    60   ~ 0
Vss_1
$Comp
L GND #PWR041
U 1 1 53A41535
P 15050 8350
F 0 "#PWR041" H 15050 8350 30  0001 C CNN
F 1 "GND" H 15050 8280 30  0001 C CNN
F 2 "" H 15050 8350 60  0000 C CNN
F 3 "" H 15050 8350 60  0000 C CNN
	1    15050 8350
	1    0    0    -1  
$EndComp
$Comp
L C MCU_C1
U 1 1 53A41544
P 15050 7900
F 0 "MCU_C1" H 15050 8000 40  0000 L CNN
F 1 "100nF" H 15056 7815 40  0000 L CNN
F 2 "~" H 15088 7750 30  0000 C CNN
F 3 "~" H 15050 7900 60  0000 C CNN
	1    15050 7900
	1    0    0    -1  
$EndComp
Text Label 12450 7700 0    60   ~ 0
Xtal_in
Text Label 13850 7700 0    60   ~ 0
Xtal_out
$Comp
L R R_PIO0_1
U 1 1 53A42360
P 9350 2550
F 0 "R_PIO0_1" V 9430 2550 40  0000 C CNN
F 1 "10k" V 9357 2551 40  0000 C CNN
F 2 "~" V 9280 2550 30  0000 C CNN
F 3 "~" H 9350 2550 30  0000 C CNN
	1    9350 2550
	1    0    0    -1  
$EndComp
Text Label 9350 2150 0    60   ~ 0
3.0V
Text Label 8950 3450 0    60   ~ 0
USB_CONNECT
Text Label 5100 9000 0    60   ~ 0
USB_CONNECT
$Comp
L R R1
U 1 1 53A42D01
P 5100 9300
F 0 "R1" V 5180 9300 40  0000 C CNN
F 1 "R" V 5107 9301 40  0000 C CNN
F 2 "~" V 5030 9300 30  0000 C CNN
F 3 "~" H 5100 9300 30  0000 C CNN
	1    5100 9300
	1    0    0    -1  
$EndComp
Text Label 5500 9150 0    60   ~ 0
3.0V
$Comp
L NPN Q1
U 1 1 53A42D10
P 5400 9550
F 0 "Q1" H 5400 9400 50  0000 R CNN
F 1 "NPN" H 5400 9700 50  0000 R CNN
F 2 "~" H 5400 9550 60  0000 C CNN
F 3 "~" H 5400 9550 60  0000 C CNN
	1    5400 9550
	1    0    0    -1  
$EndComp
$Comp
L R R2
U 1 1 53A43265
P 5500 9950
F 0 "R2" V 5580 9950 40  0000 C CNN
F 1 "1.5k" V 5507 9951 40  0000 C CNN
F 2 "~" V 5430 9950 30  0000 C CNN
F 3 "~" H 5500 9950 30  0000 C CNN
	1    5500 9950
	1    0    0    -1  
$EndComp
Text Label 5600 10200 0    60   ~ 0
USB_DP
Text Label 13600 4550 0    60   ~ 0
MCU_USB_DP
Text Label 13600 4650 0    60   ~ 0
MCU_USB_DM
Text Label 3300 10200 0    60   ~ 0
MCU_USB_DP
Text Label 3300 10300 0    60   ~ 0
MCU_USB_DM
$Comp
L CP1 C4
U 1 1 53A439E5
P 4250 10600
F 0 "C4" H 4300 10700 50  0000 L CNN
F 1 "100nF" H 4300 10500 50  0000 L CNN
F 2 "~" H 4250 10600 60  0000 C CNN
F 3 "~" H 4250 10600 60  0000 C CNN
	1    4250 10600
	1    0    0    -1  
$EndComp
$Comp
L CP1 C3
U 1 1 53A439F4
P 3950 10600
F 0 "C3" H 4000 10700 50  0000 L CNN
F 1 "100nF" H 4000 10500 50  0000 L CNN
F 2 "~" H 3950 10600 60  0000 C CNN
F 3 "~" H 3950 10600 60  0000 C CNN
	1    3950 10600
	1    0    0    -1  
$EndComp
$Comp
L GND #PWR042
U 1 1 53A43E54
P 3950 11000
F 0 "#PWR042" H 3950 11000 30  0001 C CNN
F 1 "GND" H 3950 10930 30  0001 C CNN
F 2 "" H 3950 11000 60  0000 C CNN
F 3 "" H 3950 11000 60  0000 C CNN
	1    3950 11000
	1    0    0    -1  
$EndComp
$Comp
L GND #PWR043
U 1 1 53A43E72
P 4250 11000
F 0 "#PWR043" H 4250 11000 30  0001 C CNN
F 1 "GND" H 4250 10930 30  0001 C CNN
F 2 "" H 4250 11000 60  0000 C CNN
F 3 "" H 4250 11000 60  0000 C CNN
	1    4250 11000
	1    0    0    -1  
$EndComp
$Comp
L DIODE D0
U 1 1 53A41DD4
P 1850 1600
F 0 "D0" H 1850 1700 40  0000 C CNN
F 1 "DIODE" H 1850 1500 40  0000 C CNN
F 2 "~" H 1850 1600 60  0000 C CNN
F 3 "~" H 1850 1600 60  0000 C CNN
	1    1850 1600
	-1   0    0    1   
$EndComp
Wire Wire Line
	5100 3700 5100 3750
Wire Wire Line
	4950 3700 5100 3700
Connection ~ 6100 3350
Wire Wire Line
	5950 3800 5950 3350
Wire Wire Line
	4950 3800 5950 3800
Wire Wire Line
	7250 4100 7600 4100
Connection ~ 8150 1050
Connection ~ 9700 1050
Connection ~ 9500 1050
Wire Wire Line
	9500 1450 9500 1050
Wire Wire Line
	8950 1950 8950 2050
Wire Wire Line
	8950 1450 8950 1350
Wire Wire Line
	9000 1450 8950 1450
Wire Wire Line
	9700 1450 9700 1700
Wire Wire Line
	9350 1050 10350 1050
Wire Wire Line
	7700 1050 8550 1050
Wire Wire Line
	8150 1450 8150 1700
Wire Wire Line
	2300 4300 2300 4450
Wire Wire Line
	2300 3800 2300 3900
Wire Wire Line
	2600 4100 3300 4100
Wire Wire Line
	7250 3550 7600 3550
Wire Wire Line
	5950 3350 6450 3350
Connection ~ 6750 3550
Connection ~ 6450 3750
Connection ~ 6100 3750
Connection ~ 6450 3350
Connection ~ 6750 4100
Connection ~ 6450 4300
Connection ~ 5700 4300
Connection ~ 5700 3900
Connection ~ 6450 3900
Wire Wire Line
	4950 3900 6450 3900
Wire Wire Line
	3150 4600 3300 4600
Wire Wire Line
	3150 6250 3150 6500
Wire Wire Line
	3150 4600 3150 5850
Connection ~ 6450 1000
Wire Wire Line
	5050 1450 5050 1000
Wire Wire Line
	5050 1850 5050 2250
Wire Wire Line
	6450 1850 6450 2250
Connection ~ 6150 1000
Wire Wire Line
	4000 6800 6900 6800
Wire Wire Line
	5600 1500 5600 1300
Wire Wire Line
	6150 1500 5600 1500
Wire Wire Line
	6150 2150 6150 2250
Wire Wire Line
	6150 1500 6150 1650
Wire Wire Line
	6000 1000 6900 1000
Connection ~ 5100 5300
Wire Wire Line
	5100 5100 4950 5100
Wire Wire Line
	5250 7200 5250 7300
Wire Wire Line
	4900 7200 4900 7300
Wire Wire Line
	4550 7200 4550 7300
Connection ~ 5100 5200
Wire Wire Line
	5100 5300 4950 5300
Wire Wire Line
	5950 7300 5950 7200
Wire Wire Line
	5600 7200 5600 7300
Connection ~ 5100 5000
Wire Wire Line
	4950 4900 5100 4900
Wire Wire Line
	4950 5000 5100 5000
Connection ~ 5100 5100
Wire Wire Line
	5100 5200 4950 5200
Connection ~ 3200 5000
Wire Wire Line
	3200 4900 3300 4900
Connection ~ 3200 5100
Wire Wire Line
	3300 5000 3200 5000
Connection ~ 3200 5200
Wire Wire Line
	3200 5100 3300 5100
Connection ~ 3200 5300
Wire Wire Line
	3200 5200 3300 5200
Wire Wire Line
	3200 5300 3300 5300
Wire Wire Line
	3200 4900 3200 5450
Connection ~ 5050 1000
Wire Wire Line
	6450 1000 6450 1450
Connection ~ 4550 6800
Connection ~ 5600 6800
Connection ~ 4900 6800
Wire Wire Line
	6250 7200 6250 7300
Wire Wire Line
	6500 7200 6500 7300
Connection ~ 6250 6800
Connection ~ 5950 6800
Connection ~ 6500 6800
Wire Wire Line
	2850 6800 3400 6800
Wire Wire Line
	5100 4900 5100 5700
Wire Wire Line
	14550 2700 14550 2750
Wire Wire Line
	14950 4450 15450 4450
Wire Wire Line
	13400 4050 15450 4050
Wire Wire Line
	13400 4150 15450 4150
Wire Wire Line
	13400 4250 15450 4250
Wire Wire Line
	13400 4350 15450 4350
Connection ~ 8700 6150
Connection ~ 10250 6150
Connection ~ 10050 6150
Wire Wire Line
	10050 6550 10050 6150
Wire Wire Line
	9500 7050 9500 7150
Wire Wire Line
	9500 6550 9500 6450
Wire Wire Line
	9550 6550 9500 6550
Wire Wire Line
	10250 6550 10250 6800
Wire Wire Line
	9900 6150 11100 6150
Wire Wire Line
	8250 6150 9100 6150
Wire Wire Line
	8700 6550 8700 6800
Connection ~ 7250 3550
Connection ~ 7450 3550
Connection ~ 7500 4100
Connection ~ 7250 4100
Connection ~ 3150 6250
Connection ~ 3150 5850
Connection ~ 3300 5300
Connection ~ 3300 5200
Connection ~ 3300 5100
Connection ~ 3300 5000
Connection ~ 3300 4900
Connection ~ 3300 4600
Connection ~ 2300 4300
Connection ~ 2600 4100
Connection ~ 3300 4100
Connection ~ 2300 3800
Connection ~ 2300 3900
Connection ~ 6750 9750
Connection ~ 6750 9900
Connection ~ 6750 10050
Connection ~ 13400 4350
Connection ~ 13400 4250
Connection ~ 13400 4150
Connection ~ 13400 4050
Connection ~ 13400 2950
Connection ~ 13400 3050
Connection ~ 13400 3150
Wire Wire Line
	8300 10250 8300 10450
Wire Wire Line
	6250 10350 6750 10350
Wire Wire Line
	6750 10050 6250 10050
Wire Wire Line
	6250 9900 6750 9900
Wire Wire Line
	6750 9750 6250 9750
Wire Wire Line
	5050 4700 4950 4700
Wire Wire Line
	4950 4600 5050 4600
Wire Wire Line
	4950 4500 5050 4500
Wire Wire Line
	4950 4400 5050 4400
Wire Wire Line
	5050 4200 4950 4200
Wire Wire Line
	4950 4000 5050 4000
Wire Wire Line
	2700 2900 3300 2900
Wire Wire Line
	3300 3000 2700 3000
Wire Wire Line
	2700 3100 3300 3100
Wire Wire Line
	3300 3200 2700 3200
Wire Wire Line
	8950 3150 9600 3150
Wire Wire Line
	9600 3550 8950 3550
Wire Wire Line
	8950 3650 9600 3650
Wire Wire Line
	9600 3750 8950 3750
Wire Wire Line
	8950 3850 9600 3850
Wire Wire Line
	9600 4350 8950 4350
Wire Wire Line
	8950 4550 9600 4550
Wire Wire Line
	9600 4650 8950 4650
Wire Wire Line
	8950 4750 9600 4750
Wire Wire Line
	9600 5050 8950 5050
Wire Wire Line
	8950 5150 9600 5150
Wire Wire Line
	1600 1850 1600 1700
Wire Wire Line
	1500 1700 2050 1700
Wire Wire Line
	1500 1500 1650 1500
Wire Wire Line
	4650 1000 5200 1000
Wire Wire Line
	14650 2600 15250 2600
Wire Wire Line
	14550 2700 15250 2700
Wire Wire Line
	14650 2800 15250 2800
Wire Wire Line
	14650 2900 15250 2900
Wire Wire Line
	14650 3000 15250 3000
Wire Wire Line
	14650 3100 15250 3100
Wire Wire Line
	15250 4600 15250 4550
Wire Wire Line
	15250 4550 15450 4550
Wire Wire Line
	2700 4500 3300 4500
Wire Wire Line
	3300 4300 2700 4300
Wire Wire Line
	3100 3450 3100 3400
Wire Wire Line
	3100 3400 3300 3400
Wire Wire Line
	3550 1450 3550 1500
Connection ~ 9600 4550
Connection ~ 5250 6800
Connection ~ 4000 6800
Connection ~ 3400 6800
Connection ~ 4950 4900
Connection ~ 4950 5000
Connection ~ 4950 5100
Connection ~ 4950 5200
Connection ~ 4950 5300
Connection ~ 4950 4400
Connection ~ 4950 4500
Connection ~ 4950 4600
Connection ~ 4950 4700
Connection ~ 4950 4000
Connection ~ 4950 4200
Connection ~ 4950 3700
Connection ~ 4950 3800
Connection ~ 3300 4500
Connection ~ 3300 2900
Connection ~ 3300 3000
Connection ~ 3300 3100
Connection ~ 3300 3200
Connection ~ 6750 6800
Wire Wire Line
	3000 5800 3150 5800
Connection ~ 3150 5800
Wire Wire Line
	6700 9550 6700 9750
Connection ~ 6700 9750
Wire Wire Line
	13550 2950 13400 2950
Wire Wire Line
	13550 3050 13400 3050
Wire Wire Line
	13550 3150 13400 3150
Wire Wire Line
	13550 3250 13400 3250
Wire Wire Line
	9600 4150 8950 4150
Wire Wire Line
	8950 4050 9600 4050
Wire Wire Line
	9600 3950 8950 3950
Wire Wire Line
	600  5650 600  5600
Wire Wire Line
	600  5600 1200 5600
Wire Wire Line
	1200 5500 600  5500
Wire Wire Line
	600  5400 1200 5400
Wire Wire Line
	2000 5400 2100 5400
Wire Wire Line
	2000 5500 2100 5500
Wire Wire Line
	2000 5600 2100 5600
Wire Wire Line
	11000 7550 11000 7300
Wire Wire Line
	11000 6250 11000 6150
Connection ~ 11000 6150
Wire Wire Line
	11000 6750 11000 6900
Wire Wire Line
	10250 2400 10250 2150
Wire Wire Line
	10250 1600 10250 1750
Wire Wire Line
	6850 2450 6850 2200
Wire Wire Line
	6850 1650 6850 1800
Wire Wire Line
	10250 1100 10250 1050
Connection ~ 10250 1050
Wire Wire Line
	6850 1150 6850 1000
Connection ~ 6850 1000
Wire Wire Line
	9550 2300 9550 2150
Connection ~ 6000 1000
Connection ~ 5600 1300
Connection ~ 5200 1000
Wire Wire Line
	2300 3350 2300 3400
Wire Wire Line
	2300 2750 2300 2850
Wire Wire Line
	3550 1450 3300 1450
Wire Wire Line
	13400 4750 13600 4750
Wire Wire Line
	13400 4850 13600 4850
Wire Wire Line
	13400 4950 13600 4950
Wire Wire Line
	13400 5050 13600 5050
Wire Wire Line
	13400 5150 13600 5150
Wire Wire Line
	13400 5250 13600 5250
Wire Wire Line
	14600 8100 14600 8350
Wire Wire Line
	14600 7550 14600 7700
Wire Wire Line
	15050 8100 15050 8350
Wire Wire Line
	15050 7550 15050 7700
Wire Wire Line
	12950 8300 12950 8200
Wire Wire Line
	13550 8300 13550 8200
Wire Wire Line
	13850 7700 13550 7700
Wire Wire Line
	13550 7700 13550 7800
Wire Wire Line
	12950 7800 12950 7700
Wire Wire Line
	12950 7700 12450 7700
Wire Wire Line
	9600 2850 8650 2850
Wire Wire Line
	9600 2950 8650 2950
Wire Wire Line
	9350 2150 9350 2300
Wire Wire Line
	5050 10300 5600 10300
Wire Wire Line
	8950 3450 9600 3450
Wire Wire Line
	5500 9150 5500 9350
Wire Wire Line
	5100 9000 5100 9050
Wire Wire Line
	5100 9550 5200 9550
Wire Wire Line
	5050 10200 5600 10200
Connection ~ 5500 10200
Wire Wire Line
	13400 4550 13600 4550
Wire Wire Line
	13400 4650 13600 4650
Wire Wire Line
	3300 10200 4550 10200
Wire Wire Line
	3300 10300 4550 10300
Wire Wire Line
	3950 10200 3950 10400
Connection ~ 3950 10200
Wire Wire Line
	4250 10400 4250 10300
Connection ~ 4250 10300
Wire Wire Line
	4250 11000 4250 10800
Wire Wire Line
	3950 10800 3950 11000
Wire Wire Line
	5500 9700 5500 9750
Wire Wire Line
	1650 1500 1650 1600
Wire Wire Line
	2050 1700 2050 1600
Connection ~ 1600 1700
Wire Wire Line
	9350 2950 9350 2800
Connection ~ 9350 2950
Wire Wire Line
	9550 2850 9550 2800
Connection ~ 9550 2850
Wire Wire Line
	2200 1450 2600 1450
Wire Wire Line
	2200 1550 2600 1550
Wire Wire Line
	2200 1650 2600 1650
Wire Wire Line
	3450 1650 3300 1650
NoConn ~ 3300 1550
NoConn ~ 3300 1750
NoConn ~ 2600 1750
$EndSCHEMATC
