PCBNEW-LibModule-V1  Mon 07 Apr 2014 16:44:02 CEST
# encoding utf-8
Units mm
$INDEX
C1V5
$EndINDEX
$MODULE C1V5
Po 0 0 0 15 5342B95E 00000000 ~~
Li C1V5
Cd Condensateur e = 1 pas
Kw C
Sc 0
AR /531869FA
Op 0 0 0
T0 0 -1.26746 0.762 0.762 0 0.127 N V 21 N "CP2"
T1 0 1.27 0.762 0.635 0 0.127 N V 21 N "220uF"
T2 -2.286 0 0.762 0.762 0 0.2032 N V 21 N "+"
DC 0 0 0.127 -2.54 0.127 21
$PAD
Sh "1" R 1.397 1.397 0 0 0
Dr 0.1 0 0
At STD N 00E0FFFF
Ne 1 "/VBat"
Po -1.27 0
$EndPAD
$PAD
Sh "2" C 1.397 1.397 0 0 0
Dr 0.1 0 0
At STD N 00E0FFFF
Ne 2 "GND"
Po 1.27 0
$EndPAD
$SHAPE3D
Na "discret/c_vert_c1v5.wrl"
Sc 1 1 1
Of 0 0 0
Ro 0 0 0
$EndSHAPE3D
$EndMODULE C1V5
$EndLIBRARY
