PCBNEW-LibModule-V1  Sat 21 Jun 2014 20:00:32 CEST
# encoding utf-8
Units mm
$INDEX
AO-SIMRm_SimReader
SIM5060
SIM5060-6
SIM5060-8
$EndINDEX
$MODULE AO-SIMRm_SimReader
Po 0 0 0 15 5330A4CC 00000000 ~~
Li AO-SIMRm_SimReader
Sc 0
AR 
Op 0 0 0
T0 0 0 1 1 0 0.15 N V 21 N "AO-SIMRm"
T1 0 -1.27 1 1 0 0.15 N V 21 N "VAL**"
DS 0 3 20 3 0.15 21
DS 20 3 20 -13 0.15 21
DS 20 -13 0 -13 0.15 21
DS 0 -13 0 3 0.15 21
$PAD
Sh "9" R 0.9 1.4 0 0 0
Dr 0 0 0
At SMD N 00888000
Ne 0 ""
Po 18.45 -2.75
$EndPAD
$PAD
Sh "5" R 0.9 1.4 0 0 0
Dr 0 0 0
At SMD N 00888000
Ne 0 ""
Po 1.35 -2.75
$EndPAD
$PAD
Sh "10" R 0.9 1.4 0 0 0
Dr 0 0 0
At SMD N 00888000
Ne 0 ""
Po 18.45 -6.95
$EndPAD
$PAD
Sh "4" R 0.9 1.4 0 0 0
Dr 0 0 0
At SMD N 00888000
Ne 0 ""
Po 1.35 -6.95
$EndPAD
$PAD
Sh "8" R 0.9 1.4 0 0 0
Dr 0 0 0
At SMD N 00888000
Ne 0 ""
Po 10.08 1.2
$EndPAD
$PAD
Sh "6" R 0.9 1.4 0 0 0
Dr 0 0 0
At SMD N 00888000
Ne 0 ""
Po 5 1.2
$EndPAD
$PAD
Sh "7" R 0.9 1.4 0 0 0
Dr 0 0 0
At SMD N 00888000
Ne 0 ""
Po 7.54 1.2
$EndPAD
$PAD
Sh "2" R 0.9 1.4 0 0 0
Dr 0 0 0
At SMD N 00888000
Ne 0 ""
Po 7.54 -10
$EndPAD
$PAD
Sh "3" R 0.9 1.4 0 0 0
Dr 0 0 0
At SMD N 00888000
Ne 0 ""
Po 5 -10
$EndPAD
$PAD
Sh "1" R 0.9 1.4 0 0 0
Dr 0 0 0
At SMD N 00888000
Ne 0 ""
Po 10.08 -10
$EndPAD
$EndMODULE AO-SIMRm_SimReader
$MODULE SIM5060
Po 0 0 0 15 53A5BD83 00000000 ~~
Li SIM5060
Sc 0
AR 
Op 0 0 0
T0 0 0 1.5 1.5 0 0.15 N V 21 N "SIM5060"
T1 0 0 1.5 1.5 0 0.15 N V 21 N "VAL**"
DS 16.2 -22.61 16.2 -29.65 0.15 21
DS 1 -29.65 1 -22.61 0.15 21
DS 13.33 -1.46 13.33 -22.61 0.15 21
DS 3.87 -0.65 3.87 -22.61 0.15 21
DS 13.33 0 13.33 -1.46 0.15 21
DS 3.87 0 3.87 -0.65 0.15 21
DS 0 -29.65 17.2 -29.65 0.15 21
DS 17.2 0 17.2 -29.65 0.15 21
DS 0 -22.61 17.17 -22.61 0.15 21
DS 0 0 17.2 0 0.15 21
DS 0 -0.15 0 0 0.15 21
DS 0 -29.65 0 -0.15 0.15 21
$PAD
Sh "7" R 1.4 1.4 0 0 0
Dr 0 0 0
At SMD N 00888000
Ne 0 ""
Po 12.41 -2.055
$EndPAD
$PAD
Sh "6" R 1.4 1.4 0 0 0
Dr 0 0 0
At SMD N 00888000
Ne 0 ""
Po 7.33 -2.055
$EndPAD
$PAD
Sh "5" R 1.4 1.4 0 0 0
Dr 0 0 0
At SMD N 00888000
Ne 0 ""
Po 2.25 -2.055
$EndPAD
$PAD
Sh "8" R 1.4 1.4 0 0 0
Dr 0 0 0
At SMD N 00888000
Ne 0 ""
Po 17.49 -2.055
$EndPAD
$PAD
Sh "9" R 1.4 1.4 0 0 0
Dr 0 0 0
At SMD N 00888000
Ne 0 ""
Po 4.79 -27.595
$EndPAD
$PAD
Sh "10" R 1.4 1.4 0 0 0
Dr 0 0 0
At SMD N 00888000
Ne 0 ""
Po 7.33 -27.595
$EndPAD
$PAD
Sh "11" R 1.4 1.4 0 0 0
Dr 0 0 0
At SMD N 00888000
Ne 0 ""
Po 9.87 -27.595
$EndPAD
$PAD
Sh "12" R 1.4 1.4 0 0 0
Dr 0 0 0
At SMD N 00888000
Ne 0 ""
Po 12.41 -27.595
$EndPAD
$EndMODULE SIM5060
$MODULE SIM5060-6
Po 0 0 0 15 53A5C81F 00000000 ~~
Li SIM5060-6
Kw SIM
Sc 0
AR 
Op 0 0 0
T0 0 0 1.5 1.5 0 0.15 N V 21 N "SIM5060-8"
T1 0 0 1.5 1.5 0 0.15 N V 21 N "VAL**"
DS 16.8 -26 16.2 -26 0.15 21
DS 17.2 -22.6 16.8 -26 0.15 21
DS 0.4 -26.01 1 -26.01 0.15 21
DS 0 -22.61 0.4 -26 0.15 21
DS 16.21 -3.65 17.2 -3.65 0.15 21
DS 16.21 -1.78 16.21 -3.65 0.15 21
DS 16.2 -1.775 13.33 0 0.15 21
DS 3.87 -5.57 13.33 -5.57 0.15 21
DS 16.2 -22.61 16.2 -29.65 0.15 21
DS 1 -29.65 1 -22.61 0.15 21
DS 13.33 -1.46 13.33 -5.57 0.15 21
DS 3.87 -0.65 3.87 -5.57 0.15 21
DS 13.33 0 13.33 -1.46 0.15 21
DS 3.87 0 3.87 -0.65 0.15 21
DS 1 -29.65 16.2 -29.65 0.15 21
DS 17.2 0 17.2 -22.6 0.15 21
DS 1 -22.61 16.2 -22.61 0.15 21
DS 0 0 17.2 0 0.15 21
DS 0 -0.15 0 0 0.15 21
DS 0 -22.6 0 -0.15 0.15 21
$PAD
Sh "7" R 1.3 1.4 0 0 0
Dr 0 0 0
At SMD N 00888000
Ne 0 ""
Po 9.87 -2.055
$EndPAD
$PAD
Sh "6" R 1.3 1.4 0 0 0
Dr 0 0 0
At SMD N 00888000
Ne 0 ""
Po 7.33 -2.055
$EndPAD
$PAD
Sh "5" R 1.3 1.4 0 0 0
Dr 0 0 0
At SMD N 00888000
Ne 0 ""
Po 4.79 -2.055
$EndPAD
$PAD
Sh "1" R 1.3 1.4 0 0 0
Dr 0 0 0
At SMD N 00888000
Ne 0 ""
Po 4.79 -27.595
$EndPAD
$PAD
Sh "2" R 1.3 1.4 0 0 0
Dr 0 0 0
At SMD N 00888000
Ne 0 ""
Po 7.33 -27.595
$EndPAD
$PAD
Sh "3" R 1.3 1.4 0 0 0
Dr 0 0 0
At SMD N 00888000
Ne 0 ""
Po 9.87 -27.595
$EndPAD
$EndMODULE SIM5060-6
$MODULE SIM5060-8
Po 0 0 0 15 53A5C75F 00000000 ~~
Li SIM5060-8
Kw SIM
Sc 0
AR 
Op 0 0 0
T0 0 0 1.5 1.5 0 0.15 N V 21 N "SIM5060-8"
T1 0 0 1.5 1.5 0 0.15 N V 21 N "VAL**"
DS 16.8 -26 16.2 -26 0.15 21
DS 17.2 -22.6 16.8 -26 0.15 21
DS 0.4 -26.01 1 -26.01 0.15 21
DS 0 -22.61 0.4 -26 0.15 21
DS 16.21 -3.65 17.2 -3.65 0.15 21
DS 16.21 -1.78 16.21 -3.65 0.15 21
DS 16.2 -1.775 13.33 0 0.15 21
DS 3.87 -5.57 13.33 -5.57 0.15 21
DS 16.2 -22.61 16.2 -29.65 0.15 21
DS 1 -29.65 1 -22.61 0.15 21
DS 13.33 -1.46 13.33 -5.57 0.15 21
DS 3.87 -0.65 3.87 -5.57 0.15 21
DS 13.33 0 13.33 -1.46 0.15 21
DS 3.87 0 3.87 -0.65 0.15 21
DS 1 -29.65 16.2 -29.65 0.15 21
DS 17.2 0 17.2 -22.6 0.15 21
DS 1 -22.61 16.2 -22.61 0.15 21
DS 0 0 17.2 0 0.15 21
DS 0 -0.15 0 0 0.15 21
DS 0 -22.6 0 -0.15 0.15 21
$PAD
Sh "7" R 1.3 1.4 0 0 0
Dr 0 0 0
At SMD N 00888000
Ne 0 ""
Po 9.87 -2.055
$EndPAD
$PAD
Sh "6" R 1.3 1.4 0 0 0
Dr 0 0 0
At SMD N 00888000
Ne 0 ""
Po 7.33 -2.055
$EndPAD
$PAD
Sh "5" R 1.3 1.4 0 0 0
Dr 0 0 0
At SMD N 00888000
Ne 0 ""
Po 4.79 -2.055
$EndPAD
$PAD
Sh "8" R 1.3 1.4 0 0 0
Dr 0 0 0
At SMD N 00888000
Ne 0 ""
Po 12.41 -2.055
$EndPAD
$PAD
Sh "1" R 1.3 1.4 0 0 0
Dr 0 0 0
At SMD N 00888000
Ne 0 ""
Po 4.79 -27.595
$EndPAD
$PAD
Sh "2" R 1.3 1.4 0 0 0
Dr 0 0 0
At SMD N 00888000
Ne 0 ""
Po 7.33 -27.595
$EndPAD
$PAD
Sh "3" R 1.3 1.4 0 0 0
Dr 0 0 0
At SMD N 00888000
Ne 0 ""
Po 9.87 -27.595
$EndPAD
$PAD
Sh "4" R 1.3 1.4 0 0 0
Dr 0 0 0
At SMD N 00888000
Ne 0 ""
Po 12.41 -27.595
$EndPAD
$EndMODULE SIM5060-8
$EndLIBRARY
