Drill report for /home/jenda/git/FFeed/hw/feeder.kicad_pcb
Created on Sat 21 Jun 2014 23:25:50 CEST
Drill report for plated through holes :
T1  0.64mm  0.025"  (80 holes)
T2  0.81mm  0.032"  (6 holes)
T3  1.02mm  0.040"  (22 holes)
T4  1.14mm  0.045"  (9 holes)
T5  3.05mm  0.120"  (3 holes)

Total plated holes count 120


Drill report for unplated through holes :
T1  0.90mm  0.035"  (2 holes)

Total unplated holes count 2


